{
  "project_info": {
    "project_number": "659910574024",
    "firebase_url": "https://project1-ddef2.firebaseio.com",
    "project_id": "project1-ddef2",
    "storage_bucket": "project1-ddef2.appspot.com"
  },
  "client": [
    {
      "client_info": {
        "mobilesdk_app_id": "1:659910574024:android:782f6c0370bddd16",
        "android_client_info": {
          "package_name": "main.project1.com.project1"
        }
      },
      "oauth_client": [
        {
          "client_id": "659910574024-5vmnb59fr5dc9duiau84bdueg7t00jqd.apps.googleusercontent.com",
          "client_type": 3
        }
      ],
      "api_key": [
        {
          "current_key": "AIzaSyDPTFY-oZYDW1duZYHBPVtL1VSZW8zwAbk"
        }
      ],
      "services": {
        "analytics_service": {
          "status": 1
        },
        "appinvite_service": {
          "status": 1,
          "other_platform_oauth_client": []
        },
        "ads_service": {
          "status": 2
        }
      }
    }
  ],
  "configuration_version": "1"
}